assets/Anillo5/F0013CH2.CSV

Record Length,2.500000e+03,,  -0.000001250000,   2.48000,
Sample Interval,1.000000e-09,,  -0.000001249000,   2.56000,
Trigger Point,1.250000000000e+03,,  -0.000001248000,   2.48000,
,,,  -0.000001247000,   2.48000,
,,,  -0.000001246000,   2.48000,
,,,  -0.000001245000,   2.40000,
Source,CH2,,  -0.000001244000,   2.32000,
Vertical Units,V,,  -0.000001243000,   2.40000,
Vertical Scale,2.000000e+00,,  -0.000001242000,   2.40000,
Vertical Offset,-8.000000e-02,,  -0.000001241000,   2.32000,
Horizontal Units,s,,  -0.000001240000,   2.32000,
Horizontal Scale,2.500000e-07,,  -0.000001239000,   2.40000,
Pt Fmt,Y,,  -0.000001238000,   2.24000,
Yzero,0.000000e+00,,  -0.000001237000,   2.24000,
Probe Atten,1.000000e+00,,  -0.000001236000,   2.24000,
Model Number,TBS1102B-EDU,,  -0.000001235000,   2.24000,
Serial Number,C015486,,  -0.000001234000,   2.24000,
Firmware Version,FV:v4.06,,  -0.000001233000,   2.32000,
,,,-00.000001232000,   2.24000,
,,,-00.000001231000,   2.24000,
,,,-00.000001230000,   2.24000,
,,,-00.000001229000,   2.24000,
,,,-00.000001228000,   2.16000,
,,,-00.000001227000,   2.16000,
,,,-00.000001226000,   2.16000,
,,,-00.000001225000,   2.16000,
,,,-00.000001224000,   2.08000,
,,,-00.000001223000,   2.08000,
,,,-00.000001222000,   2.08000,
,,,-00.000001221000,   2.08000,
,,,-00.000001220000,   2.08000,
,,,-00.000001219000,   2.08000,
,,,-00.000001218000,   2.08000,
,,,-00.000001217000,   2.08000,
,,,-00.000001216000,   2.00000,
,,,-00.000001215000,   2.00000,
,,,-00.000001214000,   2.08000,
,,,-00.000001213000,   2.00000,
,,,-00.000001212000,   2.00000,
,,,-00.000001211000,   2.00000,
,,,-00.000001210000,   2.00000,
,,,-00.000001209000,   1.92000,
,,,-00.000001208000,   1.92000,
,,,-00.000001207000,   1.92000,
,,,-00.000001206000,   1.84000,
,,,-00.000001205000,   2.00000,
,,,-00.000001204000,   1.92000,
,,,-00.000001203000,   2.00000,
,,,-00.000001202000,   1.84000,
,,,-00.000001201000,   1.76000,
,,,-00.000001200000,   1.84000,
,,,-00.000001199000,   1.84000,
,,,-00.000001198000,   1.76000,
,,,-00.000001197000,   1.76000,
,,,-00.000001196000,   1.84000,
,,,-00.000001195000,   1.84000,
,,,-00.000001194000,   1.84000,
,,,-00.000001193000,   1.84000,
,,,-00.000001192000,   1.76000,
,,,-00.000001191000,   1.68000,
,,,-00.000001190000,   1.68000,
,,,-00.000001189000,   1.68000,
,,,-00.000001188000,   1.84000,
,,,-00.000001187000,   1.68000,
,,,-00.000001186000,   1.68000,
,,,-00.000001185000,   1.68000,
,,,-00.000001184000,   1.76000,
,,,-00.000001183000,   1.68000,
,,,-00.000001182000,   1.60000,
,,,-00.000001181000,   1.68000,
,,,-00.000001180000,   1.68000,
,,,-00.000001179000,   1.68000,
,,,-00.000001178000,   1.60000,
,,,-00.000001177000,   1.60000,
,,,-00.000001176000,   1.60000,
,,,-00.000001175000,   1.60000,
,,,-00.000001174000,   1.60000,
,,,-00.000001173000,   1.60000,
,,,-00.000001172000,   1.52000,
,,,-00.000001171000,   1.60000,
,,,-00.000001170000,   1.52000,
,,,-00.000001169000,   1.60000,
,,,-00.000001168000,   1.52000,
,,,-00.000001167000,   1.52000,
,,,-00.000001166000,   1.52000,
,,,-00.000001165000,   1.52000,
,,,-00.000001164000,   1.60000,
,,,-00.000001163000,   1.44000,
,,,-00.000001162000,   1.44000,
,,,-00.000001161000,   1.52000,
,,,-00.000001160000,   1.52000,
,,,-00.000001159000,   1.52000,
,,,-00.000001158000,   1.52000,
,,,-00.000001157000,   1.60000,
,,,-00.000001156000,   1.60000,
,,,-00.000001155000,   1.52000,
,,,-00.000001154000,   1.68000,
,,,-00.000001153000,   1.52000,
,,,-00.000001152000,   1.60000,
,,,-00.000001151000,   1.60000,
,,,-00.000001150000,   1.60000,
,,,-00.000001149000,   1.68000,
,,,-00.000001148000,   1.68000,
,,,-00.000001147000,   1.68000,
,,,-00.000001146000,   1.68000,
,,,-00.000001145000,   1.68000,
,,,-00.000001144000,   1.60000,
,,,-00.000001143000,   1.68000,
,,,-00.000001142000,   1.60000,
,,,-00.000001141000,   1.68000,
,,,-00.000001140000,   1.60000,
,,,-00.000001139000,   1.76000,
,,,-00.000001138000,   1.60000,
,,,-00.000001137000,   1.68000,
,,,-00.000001136000,   1.60000,
,,,-00.000001135000,   1.68000,
,,,-00.000001134000,   1.60000,
,,,-00.000001133000,   1.68000,
,,,-00.000001132000,   1.76000,
,,,-00.000001131000,   1.76000,
,,,-00.000001130000,   1.68000,
,,,-00.000001129000,   1.76000,
,,,-00.000001128000,   1.68000,
,,,-00.000001127000,   1.68000,
,,,-00.000001126000,   1.76000,
,,,-00.000001125000,   1.76000,
,,,-00.000001124000,   1.76000,
,,,-00.000001123000,   1.76000,
,,,-00.000001122000,   1.84000,
,,,-00.000001121000,   1.84000,
,,,-00.000001120000,   1.92000,
,,,-00.000001119000,   1.76000,
,,,-00.000001118000,   1.84000,
,,,-00.000001117000,   1.92000,
,,,-00.000001116000,   1.84000,
,,,-00.000001115000,   2.00000,
,,,-00.000001114000,   1.92000,
,,,-00.000001113000,   1.92000,
,,,-00.000001112000,   1.92000,
,,,-00.000001111000,   1.92000,
,,,-00.000001110000,   2.00000,
,,,-00.000001109000,   2.00000,
,,,-00.000001108000,   2.08000,
,,,-00.000001107000,   2.00000,
,,,-00.000001106000,   2.00000,
,,,-00.000001105000,   2.08000,
,,,-00.000001104000,   2.08000,
,,,-00.000001103000,   2.08000,
,,,-00.000001102000,   2.08000,
,,,-00.000001101000,   2.08000,
,,,-00.000001100000,   2.00000,
,,,-00.000001099000,   2.08000,
,,,-00.000001098000,   2.08000,
,,,-00.000001097000,   2.08000,
,,,-00.000001096000,   2.16000,
,,,-00.000001095000,   2.24000,
,,,-00.000001094000,   2.16000,
,,,-00.000001093000,   2.24000,
,,,-00.000001092000,   2.24000,
,,,-00.000001091000,   2.24000,
,,,-00.000001090000,   2.16000,
,,,-00.000001089000,   2.24000,
,,,-00.000001088000,   2.16000,
,,,-00.000001087000,   2.24000,
,,,-00.000001086000,   2.24000,
,,,-00.000001085000,   2.32000,
,,,-00.000001084000,   2.24000,
,,,-00.000001083000,   2.32000,
,,,-00.000001082000,   2.32000,
,,,-00.000001081000,   2.32000,
,,,-00.000001080000,   2.32000,
,,,-00.000001079000,   2.32000,
,,,-00.000001078000,   2.32000,
,,,-00.000001077000,   2.40000,
,,,-00.000001076000,   2.40000,
,,,-00.000001075000,   2.48000,
,,,-00.000001074000,   2.40000,
,,,-00.000001073000,   2.48000,
,,,-00.000001072000,   2.48000,
,,,-00.000001071000,   2.48000,
,,,-00.000001070000,   2.48000,
,,,-00.000001069000,   2.48000,
,,,-00.000001068000,   2.56000,
,,,-00.000001067000,   2.56000,
,,,-00.000001066000,   2.48000,
,,,-00.000001065000,   2.48000,
,,,-00.000001064000,   2.48000,
,,,-00.000001063000,   2.48000,
,,,-00.000001062000,   2.56000,
,,,-00.000001061000,   2.64000,
,,,-00.000001060000,   2.56000,
,,,-00.000001059000,   2.64000,
,,,-00.000001058000,   2.56000,
,,,-00.000001057000,   2.64000,
,,,-00.000001056000,   2.64000,
,,,-00.000001055000,   2.64000,
,,,-00.000001054000,   2.64000,
,,,-00.000001053000,   2.64000,
,,,-00.000001052000,   2.72000,
,,,-00.000001051000,   2.80000,
,,,-00.000001050000,   2.72000,
,,,-00.000001049000,   2.72000,
,,,-00.000001048000,   2.72000,
,,,-00.000001047000,   2.72000,
,,,-00.000001046000,   2.80000,
,,,-00.000001045000,   2.72000,
,,,-00.000001044000,   2.88000,
,,,-00.000001043000,   2.72000,
,,,-00.000001042000,   2.80000,
,,,-00.000001041000,   2.88000,
,,,-00.000001040000,   2.80000,
,,,-00.000001039000,   2.72000,
,,,-00.000001038000,   2.88000,
,,,-00.000001037000,   2.80000,
,,,-00.000001036000,   2.88000,
,,,-00.000001035000,   2.88000,
,,,-00.000001034000,   2.88000,
,,,-00.000001033000,   2.88000,
,,,-00.000001032000,   2.88000,
,,,-00.000001031000,   2.88000,
,,,-00.000001030000,   2.96000,
,,,-00.000001029000,   2.96000,
,,,-00.000001028000,   2.88000,
,,,-00.000001027000,   2.96000,
,,,-00.000001026000,   2.96000,
,,,-00.000001025000,   2.96000,
,,,-00.000001024000,   3.04000,
,,,-00.000001023000,   3.04000,
,,,-00.000001022000,   3.04000,
,,,-00.000001021000,   3.04000,
,,,-00.000001020000,   3.04000,
,,,-00.000001019000,   3.04000,
,,,-00.000001018000,   3.12000,
,,,-00.000001017000,   3.04000,
,,,-00.000001016000,   3.20000,
,,,-00.000001015000,   3.20000,
,,,-00.000001014000,   3.12000,
,,,-00.000001013000,   3.12000,
,,,-00.000001012000,   3.12000,
,,,-00.000001011000,   3.12000,
,,,-00.000001010000,   3.12000,
,,,-00.000001009000,   3.20000,
,,,-00.000001008000,   3.12000,
,,,-00.000001007000,   3.12000,
,,,-00.000001006000,   3.20000,
,,,-00.000001005000,   3.28000,
,,,-00.000001004000,   3.28000,
,,,-00.000001003000,   3.28000,
,,,-00.000001002000,   3.20000,
,,,-00.000001001000,   3.20000,
,,,-00.000001000000,   3.20000,
,,,-00.000000999000,   3.28000,
,,,-00.000000998000,   3.28000,
,,,-00.000000997000,   3.28000,
,,,-00.000000996000,   3.28000,
,,,-00.000000995000,   3.28000,
,,,-00.000000994000,   3.20000,
,,,-00.000000993000,   3.36000,
,,,-00.000000992000,   3.36000,
,,,-00.000000991000,   3.36000,
,,,-00.000000990000,   3.36000,
,,,-00.000000989000,   3.28000,
,,,-00.000000988000,   3.28000,
,,,-00.000000987000,   3.28000,
,,,-00.000000986000,   3.36000,
,,,-00.000000985000,   3.36000,
,,,-00.000000984000,   3.36000,
,,,-00.000000983000,   3.28000,
,,,-00.000000982000,   3.28000,
,,,-00.000000981000,   3.36000,
,,,-00.000000980000,   3.36000,
,,,-00.000000979000,   3.36000,
,,,-00.000000978000,   3.28000,
,,,-00.000000977000,   3.28000,
,,,-00.000000976000,   3.28000,
,,,-00.000000975000,   3.28000,
,,,-00.000000974000,   3.12000,
,,,-00.000000973000,   3.28000,
,,,-00.000000972000,   3.20000,
,,,-00.000000971000,   3.20000,
,,,-00.000000970000,   3.20000,
,,,-00.000000969000,   3.20000,
,,,-00.000000968000,   3.20000,
,,,-00.000000967000,   3.12000,
,,,-00.000000966000,   3.12000,
,,,-00.000000965000,   3.12000,
,,,-00.000000964000,   3.20000,
,,,-00.000000963000,   3.20000,
,,,-00.000000962000,   3.20000,
,,,-00.000000961000,   3.20000,
,,,-00.000000960000,   3.20000,
,,,-00.000000959000,   3.12000,
,,,-00.000000958000,   3.20000,
,,,-00.000000957000,   3.20000,
,,,-00.000000956000,   3.12000,
,,,-00.000000955000,   3.12000,
,,,-00.000000954000,   3.12000,
,,,-00.000000953000,   3.04000,
,,,-00.000000952000,   3.12000,
,,,-00.000000951000,   3.12000,
,,,-00.000000950000,   3.04000,
,,,-00.000000949000,   3.04000,
,,,-00.000000948000,   3.04000,
,,,-00.000000947000,   3.12000,
,,,-00.000000946000,   2.96000,
,,,-00.000000945000,   2.96000,
,,,-00.000000944000,   2.88000,
,,,-00.000000943000,   2.88000,
,,,-00.000000942000,   2.96000,
,,,-00.000000941000,   2.88000,
,,,-00.000000940000,   2.96000,
,,,-00.000000939000,   2.88000,
,,,-00.000000938000,   2.88000,
,,,-00.000000937000,   2.88000,
,,,-00.000000936000,   2.88000,
,,,-00.000000935000,   2.88000,
,,,-00.000000934000,   2.80000,
,,,-00.000000933000,   2.80000,
,,,-00.000000932000,   2.72000,
,,,-00.000000931000,   2.72000,
,,,-00.000000930000,   2.72000,
,,,-00.000000929000,   2.72000,
,,,-00.000000928000,   2.72000,
,,,-00.000000927000,   2.72000,
,,,-00.000000926000,   2.72000,
,,,-00.000000925000,   2.72000,
,,,-00.000000924000,   2.64000,
,,,-00.000000923000,   2.72000,
,,,-00.000000922000,   2.64000,
,,,-00.000000921000,   2.64000,
,,,-00.000000920000,   2.64000,
,,,-00.000000919000,   2.64000,
,,,-00.000000918000,   2.72000,
,,,-00.000000917000,   2.72000,
,,,-00.000000916000,   2.64000,
,,,-00.000000915000,   2.56000,
,,,-00.000000914000,   2.56000,
,,,-00.000000913000,   2.56000,
,,,-00.000000912000,   2.56000,
,,,-00.000000911000,   2.56000,
,,,-00.000000910000,   2.64000,
,,,-00.000000909000,   2.48000,
,,,-00.000000908000,   2.56000,
,,,-00.000000907000,   2.48000,
,,,-00.000000906000,   2.48000,
,,,-00.000000905000,   2.48000,
,,,-00.000000904000,   2.40000,
,,,-00.000000903000,   2.48000,
,,,-00.000000902000,   2.32000,
,,,-00.000000901000,   2.40000,
,,,-00.000000900000,   2.40000,
,,,-00.000000899000,   2.40000,
,,,-00.000000898000,   2.40000,
,,,-00.000000897000,   2.40000,
,,,-00.000000896000,   2.24000,
,,,-00.000000895000,   2.24000,
,,,-00.000000894000,   2.24000,
,,,-00.000000893000,   2.24000,
,,,-00.000000892000,   2.24000,
,,,-00.000000891000,   2.32000,
,,,-00.000000890000,   2.32000,
,,,-00.000000889000,   2.16000,
,,,-00.000000888000,   2.16000,
,,,-00.000000887000,   2.24000,
,,,-00.000000886000,   2.24000,
,,,-00.000000885000,   2.24000,
,,,-00.000000884000,   2.16000,
,,,-00.000000883000,   2.16000,
,,,-00.000000882000,   2.24000,
,,,-00.000000881000,   2.16000,
,,,-00.000000880000,   2.24000,
,,,-00.000000879000,   2.16000,
,,,-00.000000878000,   2.16000,
,,,-00.000000877000,   2.16000,
,,,-00.000000876000,   2.16000,
,,,-00.000000875000,   2.08000,
,,,-00.000000874000,   2.08000,
,,,-00.000000873000,   2.08000,
,,,-00.000000872000,   2.08000,
,,,-00.000000871000,   2.08000,
,,,-00.000000870000,   2.08000,
,,,-00.000000869000,   2.00000,
,,,-00.000000868000,   2.00000,
,,,-00.000000867000,   2.00000,
,,,-00.000000866000,   1.92000,
,,,-00.000000865000,   2.00000,
,,,-00.000000864000,   2.00000,
,,,-00.000000863000,   2.00000,
,,,-00.000000862000,   1.84000,
,,,-00.000000861000,   2.00000,
,,,-00.000000860000,   1.92000,
,,,-00.000000859000,   1.92000,
,,,-00.000000858000,   1.84000,
,,,-00.000000857000,   1.92000,
,,,-00.000000856000,   1.92000,
,,,-00.000000855000,   1.84000,
,,,-00.000000854000,   1.84000,
,,,-00.000000853000,   1.76000,
,,,-00.000000852000,   1.92000,
,,,-00.000000851000,   1.84000,
,,,-00.000000850000,   1.92000,
,,,-00.000000849000,   1.76000,
,,,-00.000000848000,   1.84000,
,,,-00.000000847000,   1.84000,
,,,-00.000000846000,   1.76000,
,,,-00.000000845000,   1.76000,
,,,-00.000000844000,   1.68000,
,,,-00.000000843000,   1.76000,
,,,-00.000000842000,   1.68000,
,,,-00.000000841000,   1.76000,
,,,-00.000000840000,   1.68000,
,,,-00.000000839000,   1.68000,
,,,-00.000000838000,   1.68000,
,,,-00.000000837000,   1.68000,
,,,-00.000000836000,   1.68000,
,,,-00.000000835000,   1.68000,
,,,-00.000000834000,   1.60000,
,,,-00.000000833000,   1.60000,
,,,-00.000000832000,   1.60000,
,,,-00.000000831000,   1.60000,
,,,-00.000000830000,   1.52000,
,,,-00.000000829000,   1.60000,
,,,-00.000000828000,   1.60000,
,,,-00.000000827000,   1.52000,
,,,-00.000000826000,   1.52000,
,,,-00.000000825000,   1.60000,
,,,-00.000000824000,   1.60000,
,,,-00.000000823000,   1.60000,
,,,-00.000000822000,   1.44000,
,,,-00.000000821000,   1.52000,
,,,-00.000000820000,   1.52000,
,,,-00.000000819000,   1.44000,
,,,-00.000000818000,   1.52000,
,,,-00.000000817000,   1.52000,
,,,-00.000000816000,   1.60000,
,,,-00.000000815000,   1.44000,
,,,-00.000000814000,   1.52000,
,,,-00.000000813000,   1.52000,
,,,-00.000000812000,   1.52000,
,,,-00.000000811000,   1.60000,
,,,-00.000000810000,   1.52000,
,,,-00.000000809000,   1.52000,
,,,-00.000000808000,   1.52000,
,,,-00.000000807000,   1.60000,
,,,-00.000000806000,   1.68000,
,,,-00.000000805000,   1.60000,
,,,-00.000000804000,   1.68000,
,,,-00.000000803000,   1.68000,
,,,-00.000000802000,   1.68000,
,,,-00.000000801000,   1.68000,
,,,-00.000000800000,   1.68000,
,,,-00.000000799000,   1.76000,
,,,-00.000000798000,   1.68000,
,,,-00.000000797000,   1.68000,
,,,-00.000000796000,   1.76000,
,,,-00.000000795000,   1.68000,
,,,-00.000000794000,   1.60000,
,,,-00.000000793000,   1.60000,
,,,-00.000000792000,   1.68000,
,,,-00.000000791000,   1.68000,
,,,-00.000000790000,   1.68000,
,,,-00.000000789000,   1.68000,
,,,-00.000000788000,   1.68000,
,,,-00.000000787000,   1.68000,
,,,-00.000000786000,   1.68000,
,,,-00.000000785000,   1.68000,
,,,-00.000000784000,   1.68000,
,,,-00.000000783000,   1.68000,
,,,-00.000000782000,   1.68000,
,,,-00.000000781000,   1.76000,
,,,-00.000000780000,   1.68000,
,,,-00.000000779000,   1.76000,
,,,-00.000000778000,   1.76000,
,,,-00.000000777000,   1.84000,
,,,-00.000000776000,   1.76000,
,,,-00.000000775000,   1.84000,
,,,-00.000000774000,   1.84000,
,,,-00.000000773000,   1.92000,
,,,-00.000000772000,   1.76000,
,,,-00.000000771000,   1.92000,
,,,-00.000000770000,   1.92000,
,,,-00.000000769000,   1.84000,
,,,-00.000000768000,   1.84000,
,,,-00.000000767000,   1.92000,
,,,-00.000000766000,   2.00000,
,,,-00.000000765000,   2.08000,
,,,-00.000000764000,   2.08000,
,,,-00.000000763000,   2.00000,
,,,-00.000000762000,   2.08000,
,,,-00.000000761000,   2.00000,
,,,-00.000000760000,   2.00000,
,,,-00.000000759000,   2.08000,
,,,-00.000000758000,   2.08000,
,,,-00.000000757000,   2.16000,
,,,-00.000000756000,   2.08000,
,,,-00.000000755000,   2.16000,
,,,-00.000000754000,   2.16000,
,,,-00.000000753000,   2.16000,
,,,-00.000000752000,   2.16000,
,,,-00.000000751000,   2.16000,
,,,-00.000000750000,   2.24000,
,,,-00.000000749000,   2.24000,
,,,-00.000000748000,   2.16000,
,,,-00.000000747000,   2.16000,
,,,-00.000000746000,   2.16000,
,,,-00.000000745000,   2.16000,
,,,-00.000000744000,   2.16000,
,,,-00.000000743000,   2.24000,
,,,-00.000000742000,   2.16000,
,,,-00.000000741000,   2.24000,
,,,-00.000000740000,   2.24000,
,,,-00.000000739000,   2.24000,
,,,-00.000000738000,   2.24000,
,,,-00.000000737000,   2.32000,
,,,-00.000000736000,   2.40000,
,,,-00.000000735000,   2.32000,
,,,-00.000000734000,   2.40000,
,,,-00.000000733000,   2.32000,
,,,-00.000000732000,   2.32000,
,,,-00.000000731000,   2.32000,
,,,-00.000000730000,   2.40000,
,,,-00.000000729000,   2.40000,
,,,-00.000000728000,   2.40000,
,,,-00.000000727000,   2.48000,
,,,-00.000000726000,   2.48000,
,,,-00.000000725000,   2.40000,
,,,-00.000000724000,   2.56000,
,,,-00.000000723000,   2.56000,
,,,-00.000000722000,   2.48000,
,,,-00.000000721000,   2.48000,
,,,-00.000000720000,   2.56000,
,,,-00.000000719000,   2.56000,
,,,-00.000000718000,   2.56000,
,,,-00.000000717000,   2.56000,
,,,-00.000000716000,   2.56000,
,,,-00.000000715000,   2.64000,
,,,-00.000000714000,   2.64000,
,,,-00.000000713000,   2.64000,
,,,-00.000000712000,   2.56000,
,,,-00.000000711000,   2.64000,
,,,-00.000000710000,   2.64000,
,,,-00.000000709000,   2.64000,
,,,-00.000000708000,   2.64000,
,,,-00.000000707000,   2.64000,
,,,-00.000000706000,   2.72000,
,,,-00.000000705000,   2.72000,
,,,-00.000000704000,   2.64000,
,,,-00.000000703000,   2.80000,
,,,-00.000000702000,   2.72000,
,,,-00.000000701000,   2.80000,
,,,-00.000000700000,   2.72000,
,,,-00.000000699000,   2.80000,
,,,-00.000000698000,   2.72000,
,,,-00.000000697000,   2.72000,
,,,-00.000000696000,   2.80000,
,,,-00.000000695000,   2.96000,
,,,-00.000000694000,   2.80000,
,,,-00.000000693000,   2.80000,
,,,-00.000000692000,   2.88000,
,,,-00.000000691000,   2.80000,
,,,-00.000000690000,   2.80000,
,,,-00.000000689000,   2.80000,
,,,-00.000000688000,   2.88000,
,,,-00.000000687000,   2.88000,
,,,-00.000000686000,   2.96000,
,,,-00.000000685000,   2.96000,
,,,-00.000000684000,   2.96000,
,,,-00.000000683000,   2.96000,
,,,-00.000000682000,   2.96000,
,,,-00.000000681000,   3.04000,
,,,-00.000000680000,   3.04000,
,,,-00.000000679000,   2.88000,
,,,-00.000000678000,   2.88000,
,,,-00.000000677000,   3.04000,
,,,-00.000000676000,   3.04000,
,,,-00.000000675000,   3.04000,
,,,-00.000000674000,   3.04000,
,,,-00.000000673000,   3.04000,
,,,-00.000000672000,   3.12000,
,,,-00.000000671000,   3.04000,
,,,-00.000000670000,   3.04000,
,,,-00.000000669000,   3.04000,
,,,-00.000000668000,   3.12000,
,,,-00.000000667000,   3.04000,
,,,-00.000000666000,   3.12000,
,,,-00.000000665000,   3.20000,
,,,-00.000000664000,   3.12000,
,,,-00.000000663000,   3.20000,
,,,-00.000000662000,   3.20000,
,,,-00.000000661000,   3.28000,
,,,-00.000000660000,   3.12000,
,,,-00.000000659000,   3.20000,
,,,-00.000000658000,   3.20000,
,,,-00.000000657000,   3.28000,
,,,-00.000000656000,   3.36000,
,,,-00.000000655000,   3.28000,
,,,-00.000000654000,   3.28000,
,,,-00.000000653000,   3.28000,
,,,-00.000000652000,   3.28000,
,,,-00.000000651000,   3.36000,
,,,-00.000000650000,   3.36000,
,,,-00.000000649000,   3.20000,
,,,-00.000000648000,   3.28000,
,,,-00.000000647000,   3.28000,
,,,-00.000000646000,   3.44000,
,,,-00.000000645000,   3.36000,
,,,-00.000000644000,   3.36000,
,,,-00.000000643000,   3.28000,
,,,-00.000000642000,   3.36000,
,,,-00.000000641000,   3.36000,
,,,-00.000000640000,   3.28000,
,,,-00.000000639000,   3.28000,
,,,-00.000000638000,   3.36000,
,,,-00.000000637000,   3.28000,
